<svg class="thumb" width="895" height="395" viewBox="0,0,895,395" xmlns="http://www.w3.org/2000/svg">
  <defs></defs>
  <g>
    <g transform="matrix(3.6289,0,0,3.6289,231.0684,0.3195)">
      <svg width="109.999" height="67.98799999999999" viewBox="-4.624,14.508999999999997,109.999,67.98799999999999">
        <defs>
          <linearGradient x1="0" y1="0.5" x2="1" y2="0.5" id="linearGradientSkgm2lhwa1a">
            <stop offset="0%" stop-color="#ffc04a"></stop>
            <stop offset="100%" stop-color="#ff6347"></stop>
          </linearGradient>
        </defs>
        <g>
          <path fill="url('#linearGradientSkgm2lhwa1a')"
                d="M96.897,37.513c1.921,0,3.478-1.558,3.478-3.479c0-1.92-1.557-3.478-3.478-3.478s-3.478,1.558-3.478,3.478  c0,0.422,0.079,0.825,0.217,1.2l-10.153,8.649l-12.864-7.567c0.073-0.297,0.116-0.607,0.116-0.927c0-2.142-1.736-3.878-3.878-3.878  c-0.869,0-1.668,0.289-2.314,0.772L52.92,23.054c0.054-0.22,0.086-0.448,0.086-0.684c0-1.581-1.281-2.861-2.861-2.861  s-2.861,1.281-2.861,2.861c0,0.729,0.275,1.393,0.724,1.898l-5.835,12.488c-0.26-0.045-0.526-0.074-0.8-0.074  c-0.86,0-1.662,0.239-2.351,0.647l-15.438-6.915c0.036-0.225,0.06-0.454,0.06-0.689c0-2.38-1.929-4.309-4.309-4.309  c-2.379,0-4.309,1.929-4.309,4.309s1.929,4.309,4.309,4.309c1.352,0,2.556-0.623,3.346-1.596l14.682,6.576  c-0.384,0.674-0.607,1.452-0.607,2.284c0,0.852,0.293,1.605,0.694,2.29l-8.233,8.237c-1.136-0.811-2.506-1.294-4.003-1.294  c-2.642,0-4.915,1.501-6.082,3.684l-0.096-0.032c-0.001,0.012-0.004,0.023-0.005,0.035L7.553,49.002  c0.016-0.134,0.025-0.271,0.025-0.409c0-1.989-1.612-3.601-3.601-3.601s-3.601,1.612-3.601,3.601s1.612,3.601,3.601,3.601  c1.054,0,1.999-0.455,2.657-1.177l11.723,5.329c-0.005,0.013-0.009,0.025-0.015,0.037l0.056,0.019  c-0.054,0.348-0.108,0.694-0.108,1.055c0,1.954,0.813,3.716,2.115,4.975l-0.017,0.013c0.004,0.005,0.008,0.01,0.012,0.014  l-5.973,8.802c-0.155-0.027-0.314-0.044-0.478-0.044c-1.479,0-2.678,1.198-2.678,2.678c0,1.479,1.199,2.678,2.678,2.678  c1.479,0,2.678-1.199,2.678-2.678c0-0.501-0.14-0.969-0.38-1.37l5.364-7.904l0.71-0.877c0.881,0.407,1.859,0.641,2.894,0.641  c1.902,0,3.629-0.771,4.883-2.016l6.993,4.991c-0.199,0.514-0.334,1.06-0.334,1.641c0,2.548,2.065,4.617,4.617,4.617  c2.159,0,3.965-1.483,4.471-3.482l15.916-4.923c0.977,1.815,2.893,3.05,5.099,3.05c1.273,0,2.447-0.417,3.403-1.114l7.12,6.611  c-0.038,0.193-0.059,0.393-0.059,0.597c0,1.734,1.406,3.14,3.14,3.14s3.139-1.405,3.139-3.14c0-1.733-1.405-3.139-3.139-3.139  c-0.707,0-1.358,0.236-1.883,0.631l-6.811-6.323c0.552-0.887,0.893-1.93,0.893-3.05c0-2.815-1.661-5.16-4.661-5.677V39.104  c1-0.172,1.082-0.478,1.513-0.878l13.332,7.848l11.179,15.655c-0.092,0.23-0.146,0.481-0.146,0.745c0,1.125,0.91,2.037,2.035,2.037  s2.037-0.912,2.037-2.037s-0.913-2.037-2.038-2.037c-0.03,0-0.06,0.003-0.09,0.005L85.094,45.422l9.931-8.459  C95.565,37.31,96.207,37.513,96.897,37.513z M61.07,62.474c0,0.21,0.013,0.416,0.035,0.62l-15.275,4.724  c-0.522-1.975-2.316-3.435-4.458-3.435c-1.123,0-2.114,0.451-2.913,1.113l-7.038-5.022c0.447-0.92,0.717-1.93,0.717-3.017  c0-1.492-0.487-2.871-1.29-3.999l8.233-8.237c0.686,0.401,1.438,0.694,2.291,0.694c1.642,0,3.079-0.857,3.897-2.147l17.222,14.914  C61.609,59.699,61.07,61.022,61.07,62.474z M66,56.797c-1,0.1-1.135,0.273-1.596,0.502l-18.36-15.846  c0.002-0.052-0.023-0.102-0.023-0.154c0-1.485-0.718-2.802-1.806-3.646l5.799-12.428c0.046,0.002,0.088,0.007,0.134,0.007  c0.53,0,1.023-0.147,1.449-0.399l11.621,9.229c-0.151,0.415-0.113,0.861-0.113,1.328c0,1.757,0.895,3.238,2.895,3.715V56.797z"></path>
        </g>
      </svg>
    </g>
    <g transform="matrix(1.0872,0,0,1.0872,98.894,225.7659)">
      <svg width="607" height="182" style="overflow: visible;">
        <defs>
          <linearGradient x1="0" y1="0.5" x2="1" y2="0.5" id="linearGradientSkgm2lhwagr">
            <stop offset="0%" stop-color="#3a3a3a"></stop>
            <stop offset="100%" stop-color="#3a3a3a"></stop>
          </linearGradient>
        </defs>
        <g>
          <path
            d="M-174.64999999999998 0.8Q-181.35 0.8 -187.75-0.85Q-194.14999999999998-2.5 -197.95-5L-197.95-5L-192.75-16.2Q-189.14999999999998-13.9 -184.04999999999998-12.45Q-178.95-11 -174.04999999999998-11L-174.04999999999998-11Q-164.14999999999998-11 -164.14999999999998-15.9L-164.14999999999998-15.9Q-164.14999999999998-18.2 -166.85-19.2Q-169.54999999999998-20.2 -175.14999999999998-20.9L-175.14999999999998-20.9Q-181.75-21.9 -186.04999999999998-23.2Q-190.35-24.5 -193.5-27.8Q-196.64999999999998-31.1 -196.64999999999998-37.2L-196.64999999999998-37.2Q-196.64999999999998-42.3 -193.7-46.25Q-190.75-50.2 -185.1-52.4Q-179.45-54.6 -171.75-54.6L-171.75-54.6Q-166.04999999999998-54.6 -160.39999999999998-53.35Q-154.75-52.1 -151.04999999999998-49.9L-151.04999999999998-49.9L-156.25-38.8Q-163.35-42.8 -171.75-42.8L-171.75-42.8Q-176.75-42.8 -179.25-41.4Q-181.75-40 -181.75-37.8L-181.75-37.8Q-181.75-35.3 -179.04999999999998-34.3Q-176.35-33.3 -170.45-32.4L-170.45-32.4Q-163.85-31.3 -159.64999999999998-30.05Q-155.45-28.8 -152.35-25.5Q-149.25-22.2 -149.25-16.3L-149.25-16.3Q-149.25-11.3 -152.25-7.4Q-155.25-3.5 -161-1.35Q-166.75 0.8 -174.64999999999998 0.8L-174.64999999999998 0.8ZM-86.94999999999996-26.7Q-86.94999999999996-26.4 -87.24999999999997-22.5L-87.24999999999997-22.5L-127.94999999999996-22.5Q-126.84999999999997-17.5 -122.74999999999997-14.6Q-118.64999999999996-11.7 -112.54999999999997-11.7L-112.54999999999997-11.7Q-108.34999999999997-11.7 -105.09999999999997-12.95Q-101.84999999999997-14.2 -99.04999999999997-16.9L-99.04999999999997-16.9L-90.74999999999997-7.9Q-98.34999999999997 0.8 -112.94999999999996 0.8L-112.94999999999996 0.8Q-122.04999999999997 0.8 -129.04999999999995-2.75Q-136.04999999999995-6.3 -139.84999999999997-12.6Q-143.64999999999998-18.9 -143.64999999999998-26.9L-143.64999999999998-26.9Q-143.64999999999998-34.8 -139.89999999999998-41.15Q-136.14999999999998-47.5 -129.59999999999997-51.05Q-123.04999999999997-54.6 -114.94999999999996-54.6L-114.94999999999996-54.6Q-107.04999999999997-54.6 -100.64999999999996-51.2Q-94.24999999999997-47.8 -90.59999999999997-41.45Q-86.94999999999996-35.1 -86.94999999999996-26.7L-86.94999999999996-26.7ZM-114.84999999999997-42.8Q-120.14999999999996-42.8 -123.74999999999997-39.8Q-127.34999999999997-36.8 -128.14999999999998-31.6L-128.14999999999998-31.6L-101.64999999999996-31.6Q-102.44999999999996-36.7 -106.04999999999997-39.75Q-109.64999999999996-42.8 -114.84999999999997-42.8L-114.84999999999997-42.8ZM-43.84999999999997-54.6Q-33.84999999999997-54.6 -27.699999999999974-48.6Q-21.54999999999997-42.6 -21.54999999999997-30.8L-21.54999999999997-30.8L-21.54999999999997 0L-37.14999999999997 0L-37.14999999999997-28.4Q-37.14999999999997-34.8 -39.949999999999974-37.95Q-42.74999999999997-41.1 -48.04999999999997-41.1L-48.04999999999997-41.1Q-53.949999999999974-41.1 -57.449999999999974-37.45Q-60.949999999999974-33.8 -60.949999999999974-26.6L-60.949999999999974-26.6L-60.949999999999974 0L-76.54999999999997 0L-76.54999999999997-53.8L-61.64999999999997-53.8L-61.64999999999997-47.5Q-58.54999999999997-50.9 -53.949999999999974-52.75Q-49.34999999999997-54.6 -43.84999999999997-54.6L-43.84999999999997-54.6ZM 10.650000000000043 0.8Q 3.9500000000000437 0.8 -2.4499999999999584-0.85Q-8.849999999999959-2.5 -12.649999999999958-5L-12.649999999999958-5L-7.4499999999999575-16.2Q-3.849999999999957-13.9  1.2500000000000426-12.45Q 6.350000000000042-11  11.25000000000004-11L 11.25000000000004-11Q 21.15000000000004-11  21.15000000000004-15.9L 21.15000000000004-15.9Q 21.15000000000004-18.2  18.450000000000045-19.2Q 15.75000000000004-20.2  10.150000000000043-20.9L 10.150000000000043-20.9Q 3.5500000000000416-21.9 -0.7499999999999574-23.2Q-5.049999999999958-24.5 -8.199999999999957-27.8Q-11.349999999999959-31.1 -11.349999999999959-37.2L-11.349999999999959-37.2Q-11.349999999999959-42.3 -8.399999999999958-46.25Q-5.449999999999958-50.2  0.20000000000004192-52.4Q 5.850000000000042-54.6  13.550000000000042-54.6L 13.550000000000042-54.6Q 19.250000000000043-54.6  24.90000000000004-53.35Q 30.550000000000047-52.1  34.25000000000004-49.9L 34.25000000000004-49.9L 29.050000000000047-38.8Q 21.950000000000045-42.8  13.550000000000042-42.8L 13.550000000000042-42.8Q 8.550000000000042-42.8  6.050000000000042-41.4Q 3.5500000000000416-40  3.5500000000000416-37.8L 3.5500000000000416-37.8Q 3.5500000000000416-35.3  6.250000000000041-34.3Q 8.950000000000044-33.3  14.850000000000042-32.4L 14.850000000000042-32.4Q 21.450000000000045-31.3  25.65000000000004-30.05Q 29.850000000000044-28.8  32.950000000000045-25.5Q 36.05000000000005-22.2  36.05000000000005-16.3L 36.05000000000005-16.3Q 36.05000000000005-11.3  33.05000000000005-7.4Q 30.050000000000047-3.5  24.300000000000047-1.35Q 18.550000000000047 0.8  10.650000000000043 0.8L 10.650000000000043 0.8ZM 71.25000000000007 0.8Q 62.75000000000007 0.8  56.00000000000007-2.75Q 49.25000000000007-6.3  45.450000000000074-12.6Q 41.65000000000008-18.9  41.65000000000008-26.9L 41.65000000000008-26.9Q 41.65000000000008-34.9  45.450000000000074-41.2Q 49.25000000000007-47.5  56.00000000000007-51.05Q 62.75000000000007-54.6  71.25000000000007-54.6L 71.25000000000007-54.6Q 79.75000000000007-54.6  86.45000000000007-51.05Q 93.15000000000008-47.5  96.95000000000007-41.2Q 100.75000000000007-34.9  100.75000000000007-26.9L 100.75000000000007-26.9Q 100.75000000000007-18.9  96.95000000000007-12.6Q 93.15000000000008-6.3  86.45000000000007-2.75Q 79.75000000000007 0.8  71.25000000000007 0.8L 71.25000000000007 0.8ZM 71.25000000000007-12Q 77.25000000000007-12  81.10000000000008-16.05Q 84.95000000000007-20.1  84.95000000000007-26.9L 84.95000000000007-26.9Q 84.95000000000007-33.7  81.10000000000008-37.75Q 77.25000000000007-41.8  71.25000000000007-41.8L 71.25000000000007-41.8Q 65.25000000000007-41.8  61.35000000000007-37.75Q 57.450000000000074-33.7  57.450000000000074-26.9L 57.450000000000074-26.9Q 57.450000000000074-20.1  61.35000000000007-16.05Q 65.25000000000007-12  71.25000000000007-12L 71.25000000000007-12ZM 126.0500000000001-46.7Q 128.85000000000008-50.6  133.60000000000008-52.6Q 138.35000000000008-54.6  144.5500000000001-54.6L 144.5500000000001-54.6L 144.5500000000001-40.2Q 141.9500000000001-40.4  141.0500000000001-40.4L 141.0500000000001-40.4Q 134.35000000000008-40.4  130.5500000000001-36.65Q 126.75000000000009-32.9  126.75000000000009-25.4L 126.75000000000009-25.4L 126.75000000000009 0L 111.15000000000009 0L 111.15000000000009-53.8L 126.0500000000001-53.8L 126.0500000000001-46.7ZM 172.15000000000006 0.8Q 165.45000000000005 0.8  159.05000000000004-0.85Q 152.65000000000006-2.5  148.85000000000005-5L 148.85000000000005-5L 154.05000000000004-16.2Q 157.65000000000006-13.9  162.75000000000006-12.45Q 167.85000000000005-11  172.75000000000006-11L 172.75000000000006-11Q 182.65000000000003-11  182.65000000000003-15.9L 182.65000000000003-15.9Q 182.65000000000003-18.2  179.95000000000005-19.2Q 177.25000000000006-20.2  171.65000000000006-20.9L 171.65000000000006-20.9Q 165.05000000000004-21.9  160.75000000000006-23.2Q 156.45000000000005-24.5  153.30000000000004-27.8Q 150.15000000000006-31.1  150.15000000000006-37.2L 150.15000000000006-37.2Q 150.15000000000006-42.3  153.10000000000005-46.25Q 156.05000000000004-50.2  161.70000000000005-52.4Q 167.35000000000005-54.6  175.05000000000004-54.6L 175.05000000000004-54.6Q 180.75000000000006-54.6  186.40000000000003-53.35Q 192.05000000000007-52.1  195.75000000000006-49.9L 195.75000000000006-49.9L 190.55000000000007-38.8Q 183.45000000000005-42.8  175.05000000000004-42.8L 175.05000000000004-42.8Q 170.05000000000004-42.8  167.55000000000004-41.4Q 165.05000000000004-40  165.05000000000004-37.8L 165.05000000000004-37.8Q 165.05000000000004-35.3  167.75000000000006-34.3Q 170.45000000000005-33.3  176.35000000000005-32.4L 176.35000000000005-32.4Q 182.95000000000005-31.3  187.15000000000003-30.05Q 191.35000000000005-28.8  194.45000000000005-25.5Q 197.55000000000007-22.2  197.55000000000007-16.3L 197.55000000000007-16.3Q 197.55000000000007-11.3  194.55000000000007-7.4Q 191.55000000000007-3.5  185.80000000000007-1.35Q 180.05000000000007 0.8  172.15000000000006 0.8L 172.15000000000006 0.8Z"
            data-textpath="sensors" data-text-anchor="middle" data-font-size="100" data-letterspacing="0"
            data-side="left" data-offset="0" data-dx="0" data-dy="91.5" data-xmlspace="preserve" data-href=""
            data-font="Montserrat" data-font-src="/Content/clientfonts/montserrat-bold.woff" data-font-scale="contain"
            transform="translate(303.5,91.5)" data-x="303.5" data-y="0" fill="url('#linearGradientSkgm2lhwagr')"></path>
        </g>
      </svg>
    </g>
    <g transform="matrix(0.5839,0,0,0.5839,318.3582,324.4246)">
      <svg width="375" height="182" style="overflow: visible;">
        <defs>
          <linearGradient x1="0" y1="0.5" x2="1" y2="0.5" id="linearGradientSkgm2lhwaho">
            <stop offset="0%" stop-color="#ff6347"></stop>
            <stop offset="100%" stop-color="#ff6347"></stop>
          </linearGradient>
        </defs>
        <g>
          <path
            d="M-95.35000000000004-52.6L-88.55000000000004-52.6L-88.55000000000004-6.4Q-88.55000000000004 7 -95.10000000000004 13.45Q-101.65000000000003 19.9 -114.85000000000004 19.9L-114.85000000000004 19.9Q-122.15000000000003 19.9 -128.70000000000005 17.75Q-135.25000000000003 15.6 -139.35000000000002 11.8L-139.35000000000002 11.8L-135.75000000000003 6.4Q-131.95000000000005 9.8 -126.50000000000003 11.7Q-121.05000000000004 13.6 -115.05000000000004 13.6L-115.05000000000004 13.6Q-105.05000000000004 13.6 -100.35000000000004 8.95Q-95.65000000000003 4.3 -95.65000000000003-5.5L-95.65000000000003-5.5L-95.65000000000003-12.2Q-98.95000000000003-7.2 -104.30000000000004-4.6Q-109.65000000000003-2 -116.15000000000003-2L-116.15000000000003-2Q-123.55000000000004-2 -129.60000000000002-5.25Q-135.65000000000003-8.5 -139.10000000000002-14.35Q-142.55000000000004-20.2 -142.55000000000004-27.6L-142.55000000000004-27.6Q-142.55000000000004-35 -139.10000000000002-40.8Q-135.65000000000003-46.6 -129.65000000000003-49.8Q-123.65000000000003-53 -116.15000000000003-53L-116.15000000000003-53Q-109.45000000000003-53 -104.05000000000004-50.3Q-98.65000000000003-47.6 -95.35000000000004-42.5L-95.35000000000004-42.5L-95.35000000000004-52.6ZM-115.45000000000003-8.3Q-109.75000000000003-8.3 -105.15000000000003-10.75Q-100.55000000000004-13.2 -98.00000000000003-17.6Q-95.45000000000003-22 -95.45000000000003-27.6L-95.45000000000003-27.6Q-95.45000000000003-33.2 -98.00000000000003-37.55Q-100.55000000000004-41.9 -105.10000000000004-44.35Q-109.65000000000003-46.8 -115.45000000000003-46.8L-115.45000000000003-46.8Q-121.15000000000003-46.8 -125.70000000000003-44.4Q-130.25000000000003-42 -132.80000000000004-37.6Q-135.35000000000002-33.2 -135.35000000000002-27.6L-135.35000000000002-27.6Q-135.35000000000002-22 -132.80000000000004-17.6Q-130.25000000000003-13.2 -125.70000000000003-10.75Q-121.15000000000003-8.3 -115.45000000000003-8.3L-115.45000000000003-8.3ZM-50.25000000000004-53Q-39.95000000000004-53 -34.45000000000004-47.85Q-28.95000000000004-42.7 -28.95000000000004-32.6L-28.95000000000004-32.6L-28.95000000000004 0L-35.75000000000004 0L-35.75000000000004-8.2Q-38.15000000000004-4.1 -42.80000000000004-1.8Q-47.45000000000004 0.5 -53.85000000000004 0.5L-53.85000000000004 0.5Q-62.65000000000004 0.5 -67.85000000000004-3.7Q-73.05000000000004-7.9 -73.05000000000004-14.8L-73.05000000000004-14.8Q-73.05000000000004-21.5 -68.20000000000005-25.6Q-63.35000000000004-29.7 -52.75000000000004-29.7L-52.75000000000004-29.7L-36.05000000000004-29.7L-36.05000000000004-32.9Q-36.05000000000004-39.7 -39.85000000000004-43.25Q-43.65000000000004-46.8 -50.95000000000004-46.8L-50.95000000000004-46.8Q-55.95000000000004-46.8 -60.55000000000004-45.15Q-65.15000000000003-43.5 -68.45000000000005-40.6L-68.45000000000005-40.6L-71.65000000000003-45.9Q-67.65000000000003-49.3 -62.05000000000004-51.15Q-56.45000000000004-53 -50.25000000000004-53L-50.25000000000004-53ZM-52.75000000000004-5.1Q-46.75000000000004-5.1 -42.45000000000004-7.85Q-38.15000000000004-10.6 -36.05000000000004-15.8L-36.05000000000004-15.8L-36.05000000000004-24.4L-52.55000000000004-24.4Q-66.05000000000004-24.4 -66.05000000000004-15L-66.05000000000004-15Q-66.05000000000004-10.4 -62.55000000000004-7.75Q-59.05000000000004-5.1 -52.75000000000004-5.1L-52.75000000000004-5.1ZM 55.94999999999997-53Q 65.84999999999997-53  71.49999999999997-47.3Q 77.14999999999998-41.6  77.14999999999998-30.5L 77.14999999999998-30.5L 77.14999999999998 0L 70.04999999999995 0L 70.04999999999995-29.8Q 70.04999999999995-38  66.09999999999997-42.3Q 62.14999999999997-46.6  54.94999999999997-46.6L 54.94999999999997-46.6Q 46.749999999999964-46.6  42.04999999999997-41.55Q 37.349999999999966-36.5  37.349999999999966-27.6L 37.349999999999966-27.6L 37.349999999999966 0L 30.249999999999964 0L 30.249999999999964-29.8Q 30.249999999999964-38  26.29999999999997-42.3Q 22.349999999999966-46.6  15.049999999999969-46.6L 15.049999999999969-46.6Q 6.949999999999967-46.6  2.1999999999999673-41.55Q-2.5500000000000327-36.5 -2.5500000000000327-27.6L-2.5500000000000327-27.6L-2.5500000000000327 0L-9.650000000000032 0L-9.650000000000032-52.6L-2.8500000000000334-52.6L-2.8500000000000334-43Q-0.050000000000032685-47.8  4.949999999999967-50.4Q 9.949999999999967-53  16.449999999999967-53L 16.449999999999967-53Q 23.04999999999997-53  27.89999999999997-50.2Q 32.749999999999964-47.4  35.14999999999997-41.9L 35.14999999999997-41.9Q 38.04999999999997-47.1  43.499999999999964-50.05Q 48.94999999999997-53  55.94999999999997-53L 55.94999999999997-53ZM 142.54999999999995-26.3L 142.44999999999996-24.1L 98.44999999999996-24.1Q 99.04999999999995-15.9  104.74999999999996-10.85Q 110.44999999999996-5.8  119.14999999999995-5.8L 119.14999999999995-5.8Q 124.04999999999995-5.8  128.14999999999995-7.55Q 132.24999999999994-9.3  135.24999999999994-12.7L 135.24999999999994-12.7L 139.24999999999994-8.1Q 135.74999999999994-3.9  130.49999999999994-1.7Q 125.24999999999996 0.5  118.94999999999996 0.5L 118.94999999999996 0.5Q 110.84999999999997 0.5  104.59999999999997-2.95Q 98.34999999999995-6.4  94.84999999999995-12.5Q 91.34999999999995-18.6  91.34999999999995-26.3L 91.34999999999995-26.3Q 91.34999999999995-34  94.69999999999996-40.1Q 98.04999999999995-46.2  103.89999999999995-49.6Q 109.74999999999996-53  117.04999999999995-53L 117.04999999999995-53Q 124.34999999999997-53  130.14999999999995-49.6Q 135.94999999999996-46.2  139.24999999999994-40.15Q 142.54999999999995-34.1  142.54999999999995-26.3L 142.54999999999995-26.3ZM 117.04999999999995-46.9Q 109.44999999999996-46.9  104.29999999999995-42.05Q 99.14999999999996-37.2  98.44999999999996-29.4L 98.44999999999996-29.4L 135.74999999999994-29.4Q 135.04999999999995-37.2  129.89999999999995-42.05Q 124.74999999999996-46.9  117.04999999999995-46.9L 117.04999999999995-46.9Z"
            data-textpath="game" data-text-anchor="middle" data-font-size="100" data-letterspacing="0" data-side="left"
            data-offset="0" data-dx="0" data-dy="91.5" data-xmlspace="preserve" data-href="" data-font="Montserrat"
            data-font-src="/Content/clientfonts/montserrat.woff" data-font-scale="contain"
            transform="translate(187.5,91.5)" data-x="187.5" data-y="0" fill="url('#linearGradientSkgm2lhwaho')"></path>
        </g>
      </svg>
    </g>
  </g>
</svg>
